v 20130925 2
C 45900 42900 1 0 0 DS1307-1.sym
{
T 47600 45000 5 10 1 1 0 6 1
refdes=U2
T 46200 45350 5 10 0 0 0 0 1
device=ds1307
T 46200 45550 5 10 0 0 0 0 1
footprint=DIP8
}
C 49900 41600 1 0 0 dsPIC33EVxxGMx02.sym
{
T 52500 47700 5 10 1 1 0 0 1
refdes=U1
T 50200 47850 5 10 0 0 0 0 1
device=dsPIC33EVxxGMx02
T 50200 48250 5 10 0 0 0 0 1
footprint=DIP28
}
C 47900 45500 1 0 0 vdd-1.sym
C 45300 44600 1 0 0 vss-1.sym
N 49900 42000 48200 42000 4
N 48200 42000 48200 43300 4
N 49500 41400 49500 43700 4
N 49500 43700 47900 43700 4
N 48100 45500 48100 44500 4
N 48100 44500 47900 44500 4
N 45500 44600 45500 43300 4
N 45500 43300 45900 43300 4
N 49500 41400 53200 41400 4
N 53200 41400 53200 42000 4
N 53200 42000 53000 42000 4
N 48200 43300 47900 43300 4
C 48700 42600 1 0 0 input-1.sym
{
T 48700 42900 5 10 0 0 0 0 1
device=INPUT
T 48700 42600 5 10 1 1 0 0 1
value=0
}
C 47400 41900 1 0 0 input-1.sym
{
T 47400 42200 5 10 0 0 0 0 1
device=INPUT
T 47400 41900 5 10 1 1 0 0 1
value=2
}
